[gd_scene load_steps=3 format=2]

[ext_resource path="res://addons/Clock.gd" type="Script" id=1]
[ext_resource path="res://addons/Classes/TimeLabel.tscn" type="PackedScene" id=2]

[node name="Clock" type="VBoxContainer"]
margin_right = 40.0
margin_bottom = 18.0
script = ExtResource( 1 )
__meta__ = {
"_edit_use_anchors_": false
}

[node name="TimeLabel" parent="." instance=ExtResource( 2 )]
margin_bottom = 14.0

[node name="Laps" type="VBoxContainer" parent="."]
margin_top = 18.0
margin_right = 40.0
margin_bottom = 18.0
__meta__ = {
"_edit_use_anchors_": false
}
